{
  "1": {
    "_id": "1",
    "title": "Солянка",
    "price": "50",
    "weight": "300",
    "category": "",
    "image": "1.jpeg"
  },
  "7": {
    "_id": "7",
    "title": "Оригинальный",
    "price": "45",
    "weight": "300",
    "category": "",
    "image": "4.jpeg"
  },
  "3": {
    "_id": "3",
    "title": "Котлета «Особая»",
    "price": "73",
    "weight": "100",
    "category": "",
    "image": "meat.jpg"
  },
  "4": {
    "_id": "4",
    "title": "Жареный картофель",
    "price": "30",
    "weight": "200",
    "category": "",
    "image": "garnir.jpg"
  }
}
